ETC1010: Introduction to Data Analysis
…
---
# Nodes and edges?

Netword data can be thought of as two related tables, **nodes** and **edges**:

- **nodes** are connection points
- **edges** are the connections between points

---
# Example: Mad Men. (Nodes = characters from the series)

```r
madmen_nodes
## # A tibble: 45 x 2
##    label          gender
##    <chr>          <chr> 
##  1 Betty Draper   female
##  2 Don Draper     male  
##  3 Harry Crane    male  
##  4 Joan Holloway  female
##  5 Lane Pryce     male  
##  6 Peggy Olson    female
##  7 Pete Campbell  male  
##  8 Roger Sterling male  
##  9 Sal Romano     male  
## 10 Henry Francis  male  
## # … with 35 more rows
```

---
# Example: Mad Men. (Edges = how they are associated)

```r
madmen_edges
## # A tibble: 39 x 2
##    Name1        Name2           
##    <chr>        <chr>           
##  1 Betty Draper Henry Francis   
##  2 Betty Draper Random guy      
##  3 Don Draper   Allison         
##  4 Don Draper   Bethany Van Nuys
##  5 Don Draper   Betty Draper    
##  6 Don Draper   Bobbie Barrett  
##  7 Don Draper   Candace         
##  8 Don Draper   Doris           
##  9 Don Draper   Faye Miller     
## 10 Don Draper   Joy             
## # … with 29 more rows
```

---
# Let's get the madmen data into the right shape

```r
madmen_edges %>%
  rename(from_id = Name1, to_id = Name2) 
## # A tibble: 39 x 2
##    from_id      to_id           
##    <chr>        <chr>           
##  1 Betty Draper Henry Francis   
##  2 Betty Draper Random guy      
##  3 Don Draper   Allison         
##  4 Don Draper   Bethany Van Nuys
##  5 Don Draper   Betty Draper    
##  6 Don Draper   Bobbie Barrett  
##  7 Don Draper   Candace         
##  8 Don Draper   Doris           
##  9 Don Draper   Faye Miller     
## 10 Don Draper   Joy             
## # … with 29 more rows
```

---
# Let's get the madmen data into the right shape

```r
madmen_net <- madmen_edges %>%
  rename(from_id = Name1, to_id = Name2) %>%
* full_join(madmen_nodes,
*           by = c("from_id" = "label"))

madmen_net
## # A tibble: 75 x 3
##    from_id      to_id            gender
##    <chr>        <chr>            <chr> 
##  1 Betty Draper Henry Francis    female
##  2 Betty Draper Random guy       female
##  3 Don Draper   Allison          male  
##  4 Don Draper   Bethany Van Nuys male  
##  5 Don Draper   Betty Draper     male  
##  6 Don Draper   Bobbie Barrett   male  
##  7 Don Draper   Candace          male  
##  8 Don Draper   Doris            male  
##  9 Don Draper   Faye Miller      male  
## 10 Don Draper   Joy              male  
## # … with 65 more rows
```
…
.right-plot[
<img src="lecture_9a_files/figure-html/graph-plot-5-out-1.png" width="100%" style="display: block; margin: auto;" />
]

---
# Which actor was most connected?

```r
madmen_edges %>% 
  pivot_longer(cols = c(Name1, Name2),
               names_to = "List",
               values_to = "Name") 
## # A tibble: 78 x 2
##    List  Name            
##    <chr> <chr>           
##  1 Name1 Betty Draper    
##  2 Name2 Henry Francis   
##  3 Name1 Betty Draper    
##  4 Name2 Random guy      
##  5 Name1 Don Draper      
##  6 Name2 Allison         
##  7 Name1 Don Draper      
##  8 Name2 Bethany Van Nuys
##  9 Name1 Don Draper      
## 10 Name2 Betty Draper    
## # … with 68 more rows
```

---
# Which actor was most connected?

```r
madmen_edges %>% 
  pivot_longer(cols = c(Name1, Name2),
               names_to = "List",
               values_to = "Name") %>% 
  count(Name, sort = TRUE)
## # A tibble: 45 x 2
##    Name               n
##    <chr>          <int>
##  1 Don Draper        14
##  2 Roger Sterling     6
##  3 Peggy Olson        5
##  4 Pete Campbell      4
##  5 Betty Draper       3
##  6 Joan Holloway      3
##  7 Lane Pryce         3
##  8 Harry Crane        2
##  9 Sal Romano         2
## 10 Abe Drexler        1
## # … with 35 more rows
```
…
*Source: [wikicommons](https://commons.wikimedia.org/wiki/File:Harry_Potter_Platform_Kings_Cross.jpg)*

---
# Example: Harry Potter characters

There is a connection between two students if one provides emotional support to the other at some point in the book. 
- Code to pull the data together is provided by Sam Tyner [here](https://github.com/sctyner/geomnet/blob/master/README.Rmd#harry-potter-peer-support-network).

---
# Harry potter data as nodes and edges

```r
hp_all
## # A tibble: 720 x 6
##    book  from_id            to_id              schoolyear gender house     
##    <chr> <chr>              <chr>                   <dbl> <chr>  <chr>     
##  1 1     Dean Thomas        Harry James Potter       1991 M      Gryffindor
##  2 1     Dean Thomas        Hermione Granger         1991 M      Gryffindor
##  3 1     Dean Thomas        Neville Longbottom       1991 M      Gryffindor
##  4 1     Dean Thomas        Ronald Weasley           1991 M      Gryffindor
##  5 1     Dean Thomas        Seamus Finnigan          1991 M      Gryffindor
##  6 1     Fred Weasley       George Weasley           1989 M      Gryffindor
##  7 1     Fred Weasley       Harry James Potter       1989 M      Gryffindor
##  8 1     George Weasley     Fred Weasley             1989 M      Gryffindor
##  9 1     George Weasley     Harry James Potter       1989 M      Gryffindor
## 10 1     Harry James Potter Dean Thomas              1991 M      Gryffindor
## # … with 710 more rows
```
…
