ETC1010: Introduction to Data Analysis
…
---
# Take 3 minutes to discuss these two concepts with your table

- What are pipes
- What is assignment?

---
# The many shapes and sizes of data

---
# Data as an audio file

```
## # A tibble: 50,001 x 3
##        t  left right
##    <int> <int> <int>
##  1     1    28    29
##  2     2    27    28
##  3     3    26    24
##  4     4    24    27
##  5     5    22    18
##  6     6    15    19
##  7     7    15    13
##  8     8    12    13
##  9     9    15    16
## 10    10    18    16
## # … with 49,991 more rows
```
…
```

---
# Select and format pieces: put it all together

```r
imdb_top_250 <- tibble(title = titles, 
                       year = years, 
                       score = scores)

imdb_top_250
## # A tibble: 250 x 3
##    title                                              year score
##    <chr>                                             <dbl> <dbl>
##  1 The Shawshank Redemption                           1994   9.2
##  2 The Godfather                                      1972   9.1
##  3 The Godfather: Part II                             1974   9  
##  4 The Dark Knight                                    2008   9  
##  5 12 Angry Men                                       1957   8.9
##  6 Schindler's List                                   1993   8.9
##  7 The Lord of the Rings: The Return of the King      2003   8.9
##  8 Pulp Fiction                                       1994   8.8
##  9 The Good, the Bad and the Ugly                     1966   8.8
## 10 The Lord of the Rings: The Fellowship of the Ring  2001   8.8
## # … with 240 more rows
```
…
---
# Clean up / enhance

- Add a variable for rank

```r
imdb_top_250 %>%
  mutate(
    rank = 1:nrow(imdb_top_250)
  )
## # A tibble: 250 x 4
##    title                                              year score  rank
##    <chr>                                             <dbl> <dbl> <int>
##  1 The Shawshank Redemption                           1994   9.2     1
##  2 The Godfather                                      1972   9.1     2
##  3 The Godfather: Part II                             1974   9       3
##  4 The Dark Knight                                    2008   9       4
##  5 12 Angry Men                                       1957   8.9     5
##  6 Schindler's List                                   1993   8.9     6
##  7 The Lord of the Rings: The Return of the King      2003   8.9     7
##  8 Pulp Fiction                                       1994   8.8     8
##  9 The Good, the Bad and the Ugly                     1966   8.8     9
## 10 The Lord of the Rings: The Fellowship of the Ring  2001   8.8    10
## # … with 240 more rows
```
…
