ETC1010: Introduction to Data Analysis
…
```r
fries_long <- french_fries %>% 
  pivot_longer(cols = potato:painty,
               names_to = "type", 
               values_to = "rating")
fries_long
```
]

--

.pull-right[

```
## # A tibble: 3,480 x 6
##     time treatment subject   rep type    rating
##    <dbl>     <dbl>   <dbl> <dbl> <chr>    <dbl>
##  1     1         1       3     1 potato     2.9
##  2     1         1       3     1 buttery    0  
##  3     1         1       3     1 grassy     0  
##  4     1         1       3     1 rancid     0  
##  5     1         1       3     1 painty     5.5
##  6     1         1       3     2 potato    14  
##  7     1         1       3     2 buttery    0  
##  8     1         1       3     2 grassy     0  
##  9     1         1       3     2 rancid     1.1
## 10     1         1       3     2 painty     0  
## # … with 3,470 more rows
```
]

---
# Example: french-fries - pivoting back

.pull-left[

```r
fries_long
## # A tibble: 3,480 x 6
##     time treatment subject   rep type    rating
##    <dbl>     <dbl>   <dbl> <dbl> <chr>    <dbl>
##  1     1         1       3     1 potato     2.9
##  2     1         1       3     1 buttery    0  
##  3     1         1       3     1 grassy     0  
##  4     1         1       3     1 rancid     0  
##  5     1         1       3     1 painty     5.5
##  6     1         1       3     2 potato    14  
##  7     1         1       3     2 buttery    0  
##  8     1         1       3     2 grassy     0  
##  9     1         1       3     2 rancid     1.1
## 10     1         1       3     2 painty     0  
## # … with 3,470 more rows
```
]

.pull-right[

```r
fries_long %>% 
  pivot_wider(names_from = type,
              values_from = rating)
## # A tibble: 696 x 9
##     time treatment subject   rep potato buttery grassy rancid painty
##    <dbl>     <dbl>   <dbl> <dbl>  <dbl>   <dbl>  <dbl>  <dbl>  <dbl>
##  1     1         1       3     1    2.9     0      0      0      5.5
##  2     1         1       3     2   14       0      0      1.1    0  
##  3     1         1      10     1   11       6.4    0      0      0  
##  4     1         1      10     2    9.9     5.9    2.9    2.2    0  
##  5     1         1      15     1    1.2     0.1    0      1.1    5.1
##  6     1         1      15     2    8.8     3      3.6    1.5    2.3
##  7     1         1      16     1    9       2.6    0.4    0.1    0.2
##  8     1         1      16     2    8.2     4.4    0.3    1.4    4  
##  9     1         1      19     1    7       3.2    0      4.9    3.2
## 10     1         1      19     2   13       0      3.1    4.3   10.3
## # … with 686 more rows
```
]

---
class: transition
# `filter()`

choose observations from your data

---
# `filter()`: example

```r
fries_long %>%
  filter(subject == 10)
## # A tibble: 300 x 6
##     time treatment subject   rep type    rating
##    <dbl>     <dbl>   <dbl> <dbl> <chr>    <dbl>
##  1     1         1      10     1 potato    11  
##  2     1         1      10     1 buttery    6.4
##  3     1         1      10     1 grassy     0  
##  4     1         1      10     1 rancid     0  
##  5     1         1      10     1 painty     0  
##  6     1         1      10     2 potato     9.9
##  7     1         1      10     2 buttery    5.9
##  8     1         1      10     2 grassy     2.9
##  9     1         1      10     2 rancid     2.2
## 10     1         1      10     2 painty     0  
## # … with 290 more rows
```
…
Filter the french fries data to have:

- only week 1
- oil type 1 (oil type is called treatment)
- oil types 1 and 3 but not 2
- weeks 1-4 only

---
# French Fries Filter: only week 1

```r
fries_long %>% filter(time == 1)
## # A tibble: 360 x 6
##     time treatment subject   rep type    rating
##    <dbl>     <dbl>   <dbl> <dbl> <chr>    <dbl>
##  1     1         1       3     1 potato     2.9
##  2     1         1       3     1 buttery    0  
##  3     1         1       3     1 grassy     0  
##  4     1         1       3     1 rancid     0  
##  5     1         1       3     1 painty     5.5
##  6     1         1       3     2 potato    14  
##  7     1         1       3     2 buttery    0  
##  8     1         1       3     2 grassy     0  
##  9     1         1       3     2 rancid     1.1
## 10     1         1       3     2 painty     0  
## # … with 350 more rows
```

---
# French Fries Filter: oil type 1

```r
fries_long %>% filter(treatment == 1)
## # A tibble: 1,160 x 6
##     time treatment subject   rep type    rating
##    <dbl>     <dbl>   <dbl> <dbl> <chr>    <dbl>
##  1     1         1       3     1 potato     2.9
##  2     1         1       3     1 buttery    0  
##  3     1         1       3     1 grassy     0  
##  4     1         1       3     1 rancid     0  
##  5     1         1       3     1 painty     5.5
##  6     1         1       3     2 potato    14  
##  7     1         1       3     2 buttery    0  
##  8     1         1       3     2 grassy     0  
##  9     1         1       3     2 rancid     1.1
## 10     1         1       3     2 painty     0  
## # … with 1,150 more rows
```

---
# French Fries Filter: oil types 1 and 3 but not 2

```r
fries_long %>% filter(treatment != 2)
## # A tibble: 2,320 x 6
##     time treatment subject   rep type    rating
##    <dbl>     <dbl>   <dbl> <dbl> <chr>    <dbl>
##  1     1         1       3     1 potato     2.9
##  2     1         1       3     1 buttery    0  
##  3     1         1       3     1 grassy     0  
##  4     1         1       3     1 rancid     0  
##  5     1         1       3     1 painty     5.5
##  6     1         1       3     2 potato    14  
##  7     1         1       3     2 buttery    0  
##  8     1         1       3     2 grassy     0  
##  9     1         1       3     2 rancid     1.1
## 10     1         1       3     2 painty     0  
## # … with 2,310 more rows
```

---
# French Fries Filter: weeks 1-4 only

```r
fries_long %>% filter(time %in% c("1", "2", "3", "4"))
## # A tibble: 1,440 x 6
##     time treatment subject   rep type    rating
##    <dbl>     <dbl>   <dbl> <dbl> <chr>    <dbl>
##  1     1         1       3     1 potato     2.9
##  2     1         1       3     1 buttery    0  
##  3     1         1       3     1 grassy     0  
##  4     1         1       3     1 rancid     0  
##  5     1         1       3     1 painty     5.5
##  6     1         1       3     2 potato    14  
##  7     1         1       3     2 buttery    0  
##  8     1         1       3     2 grassy     0  
##  9     1         1       3     2 rancid     1.1
## 10     1         1       3     2 painty     0  
## # … with 1,430 more rows
```
…
--

- Chooses which variables to keep in the data set. 
- Useful when there are many variables but you only need some of them for an analysis. 

---
# `select()`: a comma separated list of variables, by name. 

```r
french_fries %>% 
  select(time, 
         treatment, 
         subject)
## # A tibble: 696 x 3
##     time treatment subject
##    <dbl>     <dbl>   <dbl>
##  1     1         1       3
##  2     1         1       3
##  3     1         1      10
##  4     1         1      10
##  5     1         1      15
##  6     1         1      15
##  7     1         1      16
##  8     1         1      16
##  9     1         1      19
## 10     1         1      19
## # … with 686 more rows
```

---
# `select()`: **drop** selected variables by prefixing with `-`

--

```r
french_fries %>% 
  select(-time, 
         -treatment, 
         -subject)
## # A tibble: 696 x 6
##      rep potato buttery grassy rancid painty
##    <dbl>  <dbl>   <dbl>  <dbl>  <dbl>  <dbl>
##  1     1    2.9     0      0      0      5.5
##  2     2   14       0      0      1.1    0  
##  3     1   11       6.4    0      0      0  
##  4     2    9.9     5.9    2.9    2.2    0  
##  5     1    1.2     0.1    0      1.1    5.1
##  6     2    8.8     3      3.6    1.5    2.3
##  7     1    9       2.6    0.4    0.1    0.2
##  8     2    8.2     4.4    0.3    1.4    4  
##  9     1    7       3.2    0      4.9    3.2
## 10     2   13       0      3.1    4.3   10.3
## # … with 686 more rows
```
---
# `select()`

.left-code[
Inside `select()` you can use text-matching of the names like `starts_with()`, `ends_with()`, `contains()`, `matches()`, or `everything()`
]

--

.right-plot[

```r
french_fries %>% 
  select(contains("e"))
## # A tibble: 696 x 5
##     time treatment subject   rep buttery
##    <dbl>     <dbl>   <dbl> <dbl>   <dbl>
##  1     1         1       3     1     0  
##  2     1         1       3     2     0  
##  3     1         1      10     1     6.4
##  4     1         1      10     2     5.9
##  5     1         1      15     1     0.1
##  6     1         1      15     2     3  
##  7     1         1      16     1     2.6
##  8     1         1      16     2     4.4
##  9     1         1      19     1     3.2
## 10     1         1      19     2     0  
## # … with 686 more rows
```
…
---
# `select()`: Using it

.left-code[
You can use the colon, `:`, to choose variables in order of the columns
]

--

.right-plot[

```r
french_fries %>% 
  select(time:subject)
## # A tibble: 696 x 3
##     time treatment subject
##    <dbl>     <dbl>   <dbl>
##  1     1         1       3
##  2     1         1       3
##  3     1         1      10
##  4     1         1      10
##  5     1         1      15
##  6     1         1      15
##  7     1         1      16
##  8     1         1      16
##  9     1         1      19
## 10     1         1      19
## # … with 686 more rows
```
…
.purple.large.right[
Artwork by @allison_horst
]

---
# `mutate()`: create a new variable; keep existing ones

```r
french_fries 
## # A tibble: 696 x 9
##     time treatment subject   rep potato buttery grassy rancid painty
##    <dbl>     <dbl>   <dbl> <dbl>  <dbl>   <dbl>  <dbl>  <dbl>  <dbl>
##  1     1         1       3     1    2.9     0      0      0      5.5
##  2     1         1       3     2   14       0      0      1.1    0  
##  3     1         1      10     1   11       6.4    0      0      0  
##  4     1         1      10     2    9.9     5.9    2.9    2.2    0  
##  5     1         1      15     1    1.2     0.1    0      1.1    5.1
##  6     1         1      15     2    8.8     3      3.6    1.5    2.3
##  7     1         1      16     1    9       2.6    0.4    0.1    0.2
##  8     1         1      16     2    8.2     4.4    0.3    1.4    4  
##  9     1         1      19     1    7       3.2    0      4.9    3.2
## 10     1         1      19     2   13       0      3.1    4.3   10.3
## # … with 686 more rows
```

---
# `mutate()`: create a new variable; keep existing ones

```r
french_fries %>% 
* mutate(rainty = rancid + painty)
## # A tibble: 696 x 10
##     time treatment subject   rep potato buttery grassy rancid painty rainty
##    <dbl>     <dbl>   <dbl> <dbl>  <dbl>   <dbl>  <dbl>  <dbl>  <dbl>  <dbl>
##  1     1         1       3     1    2.9     0      0      0      5.5   5.5 
##  2     1         1       3     2   14       0      0      1.1    0     1.1 
##  3     1         1      10     1   11       6.4    0      0      0     0   
##  4     1         1      10     2    9.9     5.9    2.9    2.2    0     2.2 
##  5     1         1      15     1    1.2     0.1    0      1.1    5.1   6.20
##  6     1         1      15     2    8.8     3      3.6    1.5    2.3   3.8 
##  7     1         1      16     1    9       2.6    0.4    0.1    0.2   0.3 
##  8     1         1      16     2    8.2     4.4    0.3    1.4    4     5.4 
##  9     1         1      19     1    7       3.2    0      4.9    3.2   8.1 
## 10     1         1      19     2   13       0      3.1    4.3   10.3  14.6 
## # … with 686 more rows
```
…
<img src="lecture_2b_files/figure-html/plot-fries-type-rating-1.png" width="576" style="display: block; margin: auto;" />

---
# French Fries: Are reps like each other?

```r
fries_spread <- fries_long %>% 
  pivot_wider(names_from = rep, 
              values_from = rating)
  
fries_spread
## # A tibble: 1,740 x 6
##     time treatment subject type      `1`   `2`
##    <dbl>     <dbl>   <dbl> <chr>   <dbl> <dbl>
##  1     1         1       3 potato    2.9  14  
##  2     1         1       3 buttery   0     0  
##  3     1         1       3 grassy    0     0  
##  4     1         1       3 rancid    0     1.1
##  5     1         1       3 painty    5.5   0  
##  6     1         1      10 potato   11     9.9
##  7     1         1      10 buttery   6.4   5.9
##  8     1         1      10 grassy    0     2.9
##  9     1         1      10 rancid    0     2.2
## 10     1         1      10 painty    0     0  
## # … with 1,730 more rows
```
…
