ETC1010: Introduction to Data Analysis
…
---
# What is tidy text?

```r
text_df %>%
  unnest_tokens(output = word,
                input = text,
                token = "words") # default option
## # A tibble: 49 x 2
##     line word     
##    <int> <chr>    
##  1     1 this     
##  2     1 will     
##  3     1 be       
##  4     1 an       
##  5     1 uncertain
##  6     1 time     
##  7     1 for      
##  8     1 us       
##  9     1 my       
## 10     1 love     
## # … with 39 more rows
```

---
# What is unnesting?

```r
text_df %>%
  unnest_tokens(output = word,
                input = text,
                token = "characters")
## # A tibble: 171 x 2
##     line word 
##    <int> <chr>
##  1     1 t    
##  2     1 h    
##  3     1 i    
##  4     1 s    
##  5     1 w    
##  6     1 i    
##  7     1 l    
##  8     1 l    
##  9     1 b    
## 10     1 e    
## # … with 161 more rows
```

---
# What is unnesting - ngrams length 2

```r
text_df %>%
  unnest_tokens(output = word,
                input = text,
                token = "ngrams",
                n = 2)
## # A tibble: 43 x 2
##     line word          
##    <int> <chr>         
##  1     1 this will     
##  2     1 will be       
##  3     1 be an         
##  4     1 an uncertain  
##  5     1 uncertain time
##  6     1 time for      
##  7     1 for us        
##  8     1 us my         
##  9     1 my love       
## 10     2 i can         
## # … with 33 more rows
```

---
# What is unnesting - ngrams length 3

```r
text_df %>%
  unnest_tokens(output = word,
                input = text,
                token = "ngrams",
                n = 3)
## # A tibble: 37 x 2
##     line word              
##    <int> <chr>             
##  1     1 this will be      
##  2     1 will be an        
##  3     1 be an uncertain   
##  4     1 an uncertain time 
##  5     1 uncertain time for
##  6     1 time for us       
##  7     1 for us my         
##  8     1 us my love        
##  9     2 i can hear        
## 10     2 can hear the      
## # … with 27 more rows
```
…
<img src="images/powderfinger.png" width="90%" style="display: block; margin: auto;" />

---
# Greatest Australian Album of all time (as voted by triple J)

```r
od_num_five <- genius_album(
  artist = "Powderfinger",
  album = "Odyssey Number Five"
)

od_num_five
## # A tibble: 310 x 4
##    track_n  line lyric                                         track_title      
##      <int> <int> <chr>                                         <chr>            
##  1       1     1 This will be an uncertain time for us my love Waiting For The …
##  2       1     2 I can hear the echo of your voice in my head  Waiting For The …
##  3       1     3 Singing my love                               Waiting For The …
##  4       1     4 I can see your face there in my hands my love Waiting For The …
##  5       1     5 I have been blessed by your grace and care m… Waiting For The …
##  6       1     6 Singing my love                               Waiting For The …
##  7       1     7 There's a place for us sitting here waiting … Waiting For The …
##  8       1     8 And it calls me back into the safe arms that… Waiting For The …
##  9       1     9 For every step you're further away from me m… Waiting For The …
## 10       1    10 I grow more unsteady on my feet my love       Waiting For The …
## # … with 300 more rows
```

---
# Save for later

```r
powderfinger <- od_num_five %>%
  mutate(artist = "Powderfinger",
         album = "Odyssey Number Five")

powderfinger
## # A tibble: 310 x 6
##    track_n  line lyric                       track_title     artist   album     
##      <int> <int> <chr>                       <chr>           <chr>    <chr>     
##  1       1     1 This will be an uncertain … Waiting For Th… Powderf… Odyssey N…
##  2       1     2 I can hear the echo of you… Waiting For Th… Powderf… Odyssey N…
##  3       1     3 Singing my love             Waiting For Th… Powderf… Odyssey N…
##  4       1     4 I can see your face there … Waiting For Th… Powderf… Odyssey N…
##  5       1     5 I have been blessed by you… Waiting For Th… Powderf… Odyssey N…
##  6       1     6 Singing my love             Waiting For Th… Powderf… Odyssey N…
##  7       1     7 There's a place for us sit… Waiting For Th… Powderf… Odyssey N…
##  8       1     8 And it calls me back into … Waiting For Th… Powderf… Odyssey N…
##  9       1     9 For every step you're furt… Waiting For Th… Powderf… Odyssey N…
## 10       1    10 I grow more unsteady on my… Waiting For Th… Powderf… Odyssey N…
## # … with 300 more rows
```
…
---
# Tidy up the lyrics!

```r
powderfinger_lyrics <- powderfinger %>%
  unnest_tokens(output = word,
                input = lyric)

powderfinger_lyrics
## # A tibble: 2,077 x 6
##    track_n  line track_title         artist       album               word     
##      <int> <int> <chr>               <chr>        <chr>               <chr>    
##  1       1     1 Waiting For The Sun Powderfinger Odyssey Number Five this     
##  2       1     1 Waiting For The Sun Powderfinger Odyssey Number Five will     
##  3       1     1 Waiting For The Sun Powderfinger Odyssey Number Five be       
##  4       1     1 Waiting For The Sun Powderfinger Odyssey Number Five an       
##  5       1     1 Waiting For The Sun Powderfinger Odyssey Number Five uncertain
##  6       1     1 Waiting For The Sun Powderfinger Odyssey Number Five time     
##  7       1     1 Waiting For The Sun Powderfinger Odyssey Number Five for      
##  8       1     1 Waiting For The Sun Powderfinger Odyssey Number Five us       
##  9       1     1 Waiting For The Sun Powderfinger Odyssey Number Five my       
## 10       1     1 Waiting For The Sun Powderfinger Odyssey Number Five love     
## # … with 2,067 more rows
```

---
# What are the most common words?

```r
powderfinger_lyrics %>%
  count(word) %>%
  arrange(-n)
## # A tibble: 451 x 2
##    word      n
##    <chr> <int>
##  1 the      93
##  2 you      77
##  3 i        55
##  4 and      54
##  5 to       48
##  6 it       42
##  7 in       39
##  8 a        38
##  9 for      33
## 10 me       32
## # … with 441 more rows
```

---
# Stop words

- In computing, stop words are words which are filtered out before or after processing of natural language data (text).
- They usually refer to the most common words in a language, but there is not a single list of stop words used by all natural language processing tools.

---
# English stop words

```r
get_stopwords()
## # A tibble: 175 x 2
##    word      lexicon 
##    <chr>     <chr>   
##  1 i         snowball
##  2 me        snowball
##  3 my        snowball
##  4 myself    snowball
##  5 we        snowball
##  6 our       snowball
##  7 ours      snowball
##  8 ourselves snowball
##  9 you       snowball
## 10 your      snowball
## # … with 165 more rows
```

---
# Spanish stop words

```r
get_stopwords(language = "es")
## # A tibble: 308 x 2
##    word  lexicon 
##    <chr> <chr>   
##  1 de    snowball
##  2 la    snowball
##  3 que   snowball
##  4 el    snowball
##  5 en    snowball
##  6 y     snowball
##  7 a     snowball
##  8 los   snowball
##  9 del   snowball
## 10 se    snowball
## # … with 298 more rows
```

---
# Various lexicons

See `?get_stopwords` for more info.

```r
get_stopwords(source = "smart")
## # A tibble: 571 x 2
##    word        lexicon
##    <chr>       <chr>  
##  1 a           smart  
##  2 a's         smart  
##  3 able        smart  
##  4 about       smart  
##  5 above       smart  
##  6 according   smart  
##  7 accordingly smart  
##  8 across      smart  
##  9 actually    smart  
## 10 after       smart  
## # … with 561 more rows
```

---
# What are the most common words?

```r
powderfinger_lyrics
## # A tibble: 2,077 x 6
##    track_n  line track_title         artist       album               word     
##      <int> <int> <chr>               <chr>        <chr>               <chr>    
##  1       1     1 Waiting For The Sun Powderfinger Odyssey Number Five this     
##  2       1     1 Waiting For The Sun Powderfinger Odyssey Number Five will     
##  3       1     1 Waiting For The Sun Powderfinger Odyssey Number Five be       
##  4       1     1 Waiting For The Sun Powderfinger Odyssey Number Five an       
##  5       1     1 Waiting For The Sun Powderfinger Odyssey Number Five uncertain
##  6       1     1 Waiting For The Sun Powderfinger Odyssey Number Five time     
##  7       1     1 Waiting For The Sun Powderfinger Odyssey Number Five for      
##  8       1     1 Waiting For The Sun Powderfinger Odyssey Number Five us       
##  9       1     1 Waiting For The Sun Powderfinger Odyssey Number Five my       
## 10       1     1 Waiting For The Sun Powderfinger Odyssey Number Five love     
## # … with 2,067 more rows
```

---
# What are the most common words?

```r
stopwords_smart <- get_stopwords(source = "smart")

powderfinger_lyrics %>%
  anti_join(stopwords_smart)
## # A tibble: 645 x 6
##    track_n  line track_title         artist       album               word     
##      <int> <int> <chr>               <chr>        <chr>               <chr>    
##  1       1     1 Waiting For The Sun Powderfinger Odyssey Number Five uncertain
##  2       1     1 Waiting For The Sun Powderfinger Odyssey Number Five time     
##  3       1     1 Waiting For The Sun Powderfinger Odyssey Number Five love     
##  4       1     2 Waiting For The Sun Powderfinger Odyssey Number Five hear     
##  5       1     2 Waiting For The Sun Powderfinger Odyssey Number Five echo     
##  6       1     2 Waiting For The Sun Powderfinger Odyssey Number Five voice    
##  7       1     2 Waiting For The Sun Powderfinger Odyssey Number Five head     
##  8       1     3 Waiting For The Sun Powderfinger Odyssey Number Five singing  
##  9       1     3 Waiting For The Sun Powderfinger Odyssey Number Five love     
## 10       1     4 Waiting For The Sun Powderfinger Odyssey Number Five face     
## # … with 635 more rows
```

---
# What are the most common words?

```r
powderfinger_lyrics %>%
  anti_join(stopwords_smart) %>%
  count(word) %>%
  arrange(-n)
## # A tibble: 286 x 2
##    word         n
##    <chr>    <int>
##  1 back        16
##  2 time        15
##  3 waiting     13
##  4 coming      10
##  5 slowly      10
##  6 days         9
##  7 love         9
##  8 creeping     8
##  9 grace        8
## 10 place        8
## # … with 276 more rows
```
…
---
# Sentiment analysis

- One way to analyze the sentiment of a text is to consider the text as a combination of its individual words 

- and the sentiment content of the whole text as the sum of the sentiment content of the individual words

---
# Sentiment lexicons

.pull-left[

```r
get_sentiments("afinn")
## # A tibble: 2,477 x 2
##    word       value
##    <chr>      <dbl>
##  1 abandon       -2
##  2 abandoned     -2
##  3 abandons      -2
##  4 abducted      -2
##  5 abduction     -2
##  6 abductions    -2
##  7 abhor         -3
##  8 abhorred      -3
##  9 abhorrent     -3
## 10 abhors        -3
## # … with 2,467 more rows
```
]

.pull-right[

```r
get_sentiments("bing")
## # A tibble: 6,786 x 2
##    word        sentiment
##    <chr>       <chr>    
##  1 2-faces     negative 
##  2 abnormal    negative 
##  3 abolish     negative 
##  4 abominable  negative 
##  5 abominably  negative 
##  6 abominate   negative 
##  7 abomination negative 
##  8 abort       negative 
##  9 aborted     negative 
## 10 aborts      negative 
## # … with 6,776 more rows
```
]

---
# Sentiment lexicons

.pull-left[

```r
get_sentiments(lexicon = "bing")
## # A tibble: 6,786 x 2
##    word        sentiment
##    <chr>       <chr>    
##  1 2-faces     negative 
##  2 abnormal    negative 
##  3 abolish     negative 
##  4 abominable  negative 
##  5 abominably  negative 
##  6 abominate   negative 
##  7 abomination negative 
##  8 abort       negative 
##  9 aborted     negative 
## 10 aborts      negative 
## # … with 6,776 more rows
```
]

.pull-right[

```r
get_sentiments(lexicon = "loughran")
## # A tibble: 4,150 x 2
##    word         sentiment
##    <chr>        <chr>    
##  1 abandon      negative 
##  2 abandoned    negative 
##  3 abandoning   negative 
##  4 abandonment  negative 
##  5 abandonments negative 
##  6 abandons     negative 
##  7 abdicated    negative 
##  8 abdicates    negative 
##  9 abdicating   negative 
## 10 abdication   negative 
## # … with 4,140 more rows
```
]

---
# Sentiments in Powderfinger's lyrics

```r
sentiments_bing <- get_sentiments("bing")

powderfinger_lyrics %>%
  inner_join(sentiments_bing) %>%
  count(sentiment, word) %>%
  arrange(-n)
## # A tibble: 70 x 3
##    sentiment word         n
##    <chr>     <chr>    <int>
##  1 positive  like        15
##  2 negative  slowly      10
##  3 positive  love         9
##  4 negative  creeping     8
##  5 positive  grace        8
##  6 positive  welcome      8
##  7 positive  right        7
##  8 positive  happy        6
##  9 positive  enough       5
## 10 positive  well         5
## # … with 60 more rows
```
…
---
# Combine data:

```r
ldoc <- bind_rows(powderfinger,
                  stripes,
                  midnight)

ldoc
## # A tibble: 882 x 6
##    track_n  line lyric                       track_title     artist   album     
##      <int> <int> <chr>                       <chr>           <chr>    <chr>     
##  1       1     1 This will be an uncertain … Waiting For Th… Powderf… Odyssey N…
##  2       1     2 I can hear the echo of you… Waiting For Th… Powderf… Odyssey N…
##  3       1     3 Singing my love             Waiting For Th… Powderf… Odyssey N…
##  4       1     4 I can see your face there … Waiting For Th… Powderf… Odyssey N…
##  5       1     5 I have been blessed by you… Waiting For Th… Powderf… Odyssey N…
##  6       1     6 Singing my love             Waiting For Th… Powderf… Odyssey N…
##  7       1     7 There's a place for us sit… Waiting For Th… Powderf… Odyssey N…
##  8       1     8 And it calls me back into … Waiting For Th… Powderf… Odyssey N…
##  9       1     9 For every step you're furt… Waiting For Th… Powderf… Odyssey N…
## 10       1    10 I grow more unsteady on my… Waiting For Th… Powderf… Odyssey N…
## # … with 872 more rows
```

---
# LDOC lyrics

```r
ldoc_lyrics <- ldoc %>%
  unnest_tokens(word, lyric)

ldoc_lyrics
## # A tibble: 6,365 x 6
##    track_n  line track_title         artist       album               word     
##      <int> <int> <chr>               <chr>        <chr>               <chr>    
##  1       1     1 Waiting For The Sun Powderfinger Odyssey Number Five this     
##  2       1     1 Waiting For The Sun Powderfinger Odyssey Number Five will     
##  3       1     1 Waiting For The Sun Powderfinger Odyssey Number Five be       
##  4       1     1 Waiting For The Sun Powderfinger Odyssey Number Five an       
##  5       1     1 Waiting For The Sun Powderfinger Odyssey Number Five uncertain
##  6       1     1 Waiting For The Sun Powderfinger Odyssey Number Five time     
##  7       1     1 Waiting For The Sun Powderfinger Odyssey Number Five for      
##  8       1     1 Waiting For The Sun Powderfinger Odyssey Number Five us       
##  9       1     1 Waiting For The Sun Powderfinger Odyssey Number Five my       
## 10       1     1 Waiting For The Sun Powderfinger Odyssey Number Five love     
## # … with 6,355 more rows
```

---
# Common LDOC lyrics - Without stop words:

```r
ldoc_lyrics %>%
  anti_join(stopwords_smart) %>%
  count(artist, word, sort = TRUE) # alternative way to sort
## # A tibble: 890 x 3
##    artist            word        n
##    <chr>             <chr>   <int>
##  1 The White Stripes girl       35
##  2 The White Stripes home       33
##  3 The White Stripes cold       24
##  4 The White Stripes love       23
##  5 The Midnight      kids       20
##  6 The White Stripes good       20
##  7 Powderfinger      back       16
##  8 Powderfinger      time       15
##  9 Powderfinger      waiting    13
## 10 The Midnight      woah       13
## # … with 880 more rows
```

---
# Common LDOC lyrics - With stop words:

```r
ldoc_lyrics_counts <- ldoc_lyrics %>%
  count(artist, word, sort = TRUE)

ldoc_lyrics_counts
## # A tibble: 1,378 x 3
##    artist            word      n
##    <chr>             <chr> <int>
##  1 The White Stripes to      121
##  2 The White Stripes i       111
##  3 The White Stripes you     106
##  4 The White Stripes the     105
##  5 The White Stripes do      102
##  6 Powderfinger      the      93
##  7 Powderfinger      you      77
##  8 The White Stripes and      73
##  9 The White Stripes a        72
## 10 The Midnight      the      60
## # … with 1,368 more rows
```
…
`$$idf(\text{term}) = \ln{\left(\frac{n_{\text{documents}}}{n_{\text{documents containing term}}}\right)}$$`

tf-idf is about comparing **documents** within a **collection**.

---
# Calculating tf-idf: 

Perhaps not that exciting... What's the issue?

```r
ldoc_words <- ldoc_lyrics_counts %>%
  bind_tf_idf(term = word, document = artist, n = n)

ldoc_words
## # A tibble: 1,378 x 6
##    artist            word      n     tf   idf tf_idf
##    <chr>             <chr> <int>  <dbl> <dbl>  <dbl>
##  1 The White Stripes to      121 0.0357     0      0
##  2 The White Stripes i       111 0.0328     0      0
##  3 The White Stripes you     106 0.0313     0      0
##  4 The White Stripes the     105 0.0310     0      0
##  5 The White Stripes do      102 0.0301     0      0
##  6 Powderfinger      the      93 0.0448     0      0
##  7 Powderfinger      you      77 0.0371     0      0
##  8 The White Stripes and      73 0.0216     0      0
##  9 The White Stripes a        72 0.0213     0      0
## 10 The Midnight      the      60 0.0666     0      0
## # … with 1,368 more rows
```

---
# Re-calculating tf-idf

```r
ldoc_words %>%
  bind_tf_idf(term = word, document = artist, n = n) %>%
  arrange(-tf_idf)
## # A tibble: 1,378 x 6
##    artist            word            n      tf   idf  tf_idf
##    <chr>             <chr>       <int>   <dbl> <dbl>   <dbl>
##  1 The Midnight      kids           20 0.0222   1.10 0.0244 
##  2 The Midnight      woah           13 0.0144   1.10 0.0159 
##  3 The Midnight      bedroom        10 0.0111   1.10 0.0122 
##  4 The Midnight      monsters       10 0.0111   1.10 0.0122 
##  5 The Midnight      spare          10 0.0111   1.10 0.0122 
##  6 The White Stripes girl           35 0.0103   1.10 0.0114 
##  7 The Midnight      america         9 0.00999  1.10 0.0110 
##  8 The Midnight      sentimental     9 0.00999  1.10 0.0110 
##  9 The White Stripes her            25 0.00738  1.10 0.00811
## 10 The White Stripes cold           24 0.00709  1.10 0.00778
## # … with 1,368 more rows
```
…
