ETC1010: Introduction to Data Analysis
…
---

# Example: US graduate programs

```r
library(tidyverse)
grad <- read_csv(here::here("slides/data/graduate-programs.csv"))
grad
## # A tibble: 412 x 16
##    subject Inst  AvNumPubs AvNumCits PctFacGrants PctCompletion MedianTimetoDeg…
##    <chr>   <chr>     <dbl>     <dbl>        <dbl>         <dbl>            <dbl>
##  1 econom… ARIZ…      0.9       1.57         31.3          31.7             5.6 
##  2 econom… AUBU…      0.79      0.64         77.6          44.4             3.84
##  3 econom… BOST…      0.51      1.03         43.5          46.8             5   
##  4 econom… BOST…      0.49      2.66         36.9          34.2             5.5 
##  5 econom… BRAN…      0.3       3.03         36.8          48.7             5.29
##  6 econom… BROW…      0.84      2.31         27.1          54.6             6   
##  7 econom… CALI…      0.99      2.31         56.4          83.3             4   
##  8 econom… CARN…      0.43      1.67         35.2          45.6             5.05
##  9 econom… CITY…      0.35      1.06         38.1          27.9             5.2 
## 10 econom… CLAR…      0.47      0.7          24.7          37.7             5.17
## # … with 402 more rows, and 9 more variables: PctMinorityFac <dbl>,
## #   PctFemaleFac <dbl>, PctFemaleStud <dbl>, PctIntlStud <dbl>,
## #   AvNumPhDs <dbl>, AvGREs <dbl>, TotFac <dbl>, PctAsstProf <dbl>,
## #   NumStud <dbl>
```
…
---
class: transition
# Different examples of data

For each of these data examples, **let's try together to identify the variables and the observations** - some are HARD!

---

# The grad program

Is in **tidy** tabular form. 

```
## # A tibble: 412 x 16
##    subject Inst  AvNumPubs AvNumCits PctFacGrants PctCompletion MedianTimetoDeg…
##    <chr>   <chr>     <dbl>     <dbl>        <dbl>         <dbl>            <dbl>
##  1 econom… ARIZ…      0.9       1.57         31.3          31.7             5.6 
##  2 econom… AUBU…      0.79      0.64         77.6          44.4             3.84
##  3 econom… BOST…      0.51      1.03         43.5          46.8             5   
##  4 econom… BOST…      0.49      2.66         36.9          34.2             5.5 
##  5 econom… BRAN…      0.3       3.03         36.8          48.7             5.29
##  6 econom… BROW…      0.84      2.31         27.1          54.6             6   
##  7 econom… CALI…      0.99      2.31         56.4          83.3             4   
##  8 econom… CARN…      0.43      1.67         35.2          45.6             5.05
##  9 econom… CITY…      0.35      1.06         38.1          27.9             5.2 
## 10 econom… CLAR…      0.47      0.7          24.7          37.7             5.17
## # … with 402 more rows, and 9 more variables: PctMinorityFac <dbl>,
## #   PctFemaleFac <dbl>, PctFemaleStud <dbl>, PctIntlStud <dbl>,
## #   AvNumPhDs <dbl>, AvGREs <dbl>, TotFac <dbl>, PctAsstProf <dbl>,
## #   NumStud <dbl>
```
…
02:00

---
# Melbourne weather 😨

```
## # A tibble: 1,593 x 12
##    X1             X2 X3    X4       X5    X9   X13   X17   X21   X25   X29   X33
##    <chr>       <dbl> <chr> <chr> <dbl> <dbl> <dbl> <dbl> <dbl> <dbl> <dbl> <dbl>
##  1 ASN00086282  1970 07    TMAX    141   124   113   123   148   149   139   153
##  2 ASN00086282  1970 07    TMIN     80    63    36    57    69    47    84    78
##  3 ASN00086282  1970 07    PRCP      3    30     0     0    36     3     0     0
##  4 ASN00086282  1970 08    TMAX    145   128   150   122   109   112   116   142
##  5 ASN00086282  1970 08    TMIN     50    61    75    67    41    51    48    -7
##  6 ASN00086282  1970 08    PRCP      0    66     0    53    13     3     8     0
##  7 ASN00086282  1970 09    TMAX    168   168   162   162   162   150   184   179
##  8 ASN00086282  1970 09    TMIN     19    29    62    81    81    55    73    97
##  9 ASN00086282  1970 09    PRCP      0     0     0     0     3     5     0    38
## 10 ASN00086282  1970 10    TMAX    189   194   204   267   256   228   237   144
## # … with 1,583 more rows
```

02:00

---
# Tuberculosis notifications data taken from [WHO](http://www.who.int/tb/country/data/download/en/) 🤧 

```
## # A tibble: 3,202 x 22
##    country  year new_sp_m04 new_sp_m514 new_sp_m014 new_sp_m1524 new_sp_m2534
##    <chr>   <dbl>      <dbl>       <dbl>       <dbl>        <dbl>        <dbl>
##  1 Afghan…  1997         NA          NA           0           10            6
##  2 Afghan…  1998         NA          NA          30          129          128
##  3 Afghan…  1999         NA          NA           8           55           55
##  4 Afghan…  2000         NA          NA          52          228          183
##  5 Afghan…  2001         NA          NA         129          379          349
##  6 Afghan…  2002         NA          NA          90          476          481
##  7 Afghan…  2003         NA          NA         127          511          436
##  8 Afghan…  2004         NA          NA         139          537          568
##  9 Afghan…  2005         NA          NA         151          606          560
## 10 Afghan…  2006         NA          NA         193          837          791
## # … with 3,192 more rows, and 15 more variables: new_sp_m3544 <dbl>,
## #   new_sp_m4554 <dbl>, new_sp_m5564 <dbl>, new_sp_m65 <dbl>, new_sp_mu <dbl>,
## #   new_sp_f04 <dbl>, new_sp_f514 <dbl>, new_sp_f014 <dbl>, new_sp_f1524 <dbl>,
## #   new_sp_f2534 <dbl>, new_sp_f3544 <dbl>, new_sp_f4554 <dbl>,
## #   new_sp_f5564 <dbl>, new_sp_f65 <dbl>, new_sp_fu <dbl>
```
…
.pull-right[

<img src="images/french_fries.png" width="100%" style="display: block; margin: auto;" />

]

---
# French fries: Variables? Observations?

```
## # A tibble: 696 x 9
##     time treatment subject   rep potato buttery grassy rancid painty
##    <dbl>     <dbl>   <dbl> <dbl>  <dbl>   <dbl>  <dbl>  <dbl>  <dbl>
##  1     1         1       3     1    2.9     0      0      0      5.5
##  2     1         1       3     2   14       0      0      1.1    0  
##  3     1         1      10     1   11       6.4    0      0      0  
##  4     1         1      10     2    9.9     5.9    2.9    2.2    0  
##  5     1         1      15     1    1.2     0.1    0      1.1    5.1
##  6     1         1      15     2    8.8     3      3.6    1.5    2.3
##  7     1         1      16     1    9       2.6    0.4    0.1    0.2
##  8     1         1      16     2    8.2     4.4    0.3    1.4    4  
##  9     1         1      19     1    7       3.2    0      4.9    3.2
## 10     1         1      19     2   13       0      3.1    4.3   10.3
## # … with 686 more rows
```
…
]

.right-plot[

```r
genes_long <- genes %>% 
  pivot_longer(cols = -id,
               names_to = "variable",
               values_to = "expr")

genes_long
## # A tibble: 33 x 3
##    id     variable  expr
##    <chr>  <chr>    <dbl>
##  1 Gene 1 WI-6.R1   2.18
##  2 Gene 1 WI-6.R2   2.20
##  3 Gene 1 WI-6.R4   4.20
##  4 Gene 1 WM-6.R1   2.63
##  5 Gene 1 WM-6.R2   5.06
##  6 Gene 1 WI-12.R1  4.54
##  7 Gene 1 WI-12.R2  5.53
##  8 Gene 1 WI-12.R4  4.41
##  9 Gene 1 WM-12.R1  3.85
## 10 Gene 1 WM-12.R2  4.18
## # … with 23 more rows
```
]

---
# Separate columns

.left-code[

```r
genes_long
## # A tibble: 33 x 3
##    id     variable  expr
##    <chr>  <chr>    <dbl>
##  1 Gene 1 WI-6.R1   2.18
##  2 Gene 1 WI-6.R2   2.20
##  3 Gene 1 WI-6.R4   4.20
##  4 Gene 1 WM-6.R1   2.63
##  5 Gene 1 WM-6.R2   5.06
##  6 Gene 1 WI-12.R1  4.54
##  7 Gene 1 WI-12.R2  5.53
##  8 Gene 1 WI-12.R4  4.41
##  9 Gene 1 WM-12.R1  3.85
## 10 Gene 1 WM-12.R2  4.18
## # … with 23 more rows
```

]

.right-plot[

```r
genes_long %>%
  separate(col = variable, 
           into = c("trt", "leftover"), "-")
## # A tibble: 33 x 4
##    id     trt   leftover  expr
##    <chr>  <chr> <chr>    <dbl>
##  1 Gene 1 WI    6.R1      2.18
##  2 Gene 1 WI    6.R2      2.20
##  3 Gene 1 WI    6.R4      4.20
##  4 Gene 1 WM    6.R1      2.63
##  5 Gene 1 WM    6.R2      5.06
##  6 Gene 1 WI    12.R1     4.54
##  7 Gene 1 WI    12.R2     5.53
##  8 Gene 1 WI    12.R4     4.41
##  9 Gene 1 WM    12.R1     3.85
## 10 Gene 1 WM    12.R2     4.18
## # … with 23 more rows
```
]

---
# Separate columns

```r
genes_long_tidy <- genes_long %>%
  separate(variable, c("trt", "leftover"), "-") %>%
  separate(leftover, c("time", "rep"), "\\.") 

genes_long_tidy
## # A tibble: 33 x 5
##    id     trt   time  rep    expr
##    <chr>  <chr> <chr> <chr> <dbl>
##  1 Gene 1 WI    6     R1     2.18
##  2 Gene 1 WI    6     R2     2.20
##  3 Gene 1 WI    6     R4     4.20
##  4 Gene 1 WM    6     R1     2.63
##  5 Gene 1 WM    6     R2     5.06
##  6 Gene 1 WI    12    R1     4.54
##  7 Gene 1 WI    12    R2     5.53
##  8 Gene 1 WI    12    R4     4.41
##  9 Gene 1 WM    12    R1     3.85
## 10 Gene 1 WM    12    R2     4.18
## # … with 23 more rows
```
…
