ETC1010: Introduction to Data Analysis
…
]

---
# getting pedestrian count data with rwalkr

```r
library(rwalkr)
walk_all <- melb_walk_fast(year = 2019)

walk <- walk_all %>% filter(Sensor == "Melbourne Central")
walk
```

```
## # A tibble: 8,760 x 5
##    Sensor            Date_Time           Date        Time Count
##    <chr>             <dttm>              <date>     <dbl> <dbl>
##  1 Melbourne Central 2017-12-31 13:00:00 2018-01-01     0  2996
##  2 Melbourne Central 2017-12-31 14:00:00 2018-01-01     1  3481
##  3 Melbourne Central 2017-12-31 15:00:00 2018-01-01     2  1721
##  4 Melbourne Central 2017-12-31 16:00:00 2018-01-01     3  1056
##  5 Melbourne Central 2017-12-31 17:00:00 2018-01-01     4   417
##  6 Melbourne Central 2017-12-31 18:00:00 2018-01-01     5   222
##  7 Melbourne Central 2017-12-31 19:00:00 2018-01-01     6   110
##  8 Melbourne Central 2017-12-31 20:00:00 2018-01-01     7   180
##  9 Melbourne Central 2017-12-31 21:00:00 2018-01-01     8   205
## 10 Melbourne Central 2017-12-31 22:00:00 2018-01-01     9   326
## # … with 8,750 more rows
```
…
---
# What format is walk in?

```r
walk
## # A tibble: 8,760 x 5
##    Sensor            Date_Time           Date        Time Count
##    <chr>             <dttm>              <date>     <dbl> <dbl>
##  1 Melbourne Central 2017-12-31 13:00:00 2018-01-01     0  2996
##  2 Melbourne Central 2017-12-31 14:00:00 2018-01-01     1  3481
##  3 Melbourne Central 2017-12-31 15:00:00 2018-01-01     2  1721
##  4 Melbourne Central 2017-12-31 16:00:00 2018-01-01     3  1056
##  5 Melbourne Central 2017-12-31 17:00:00 2018-01-01     4   417
##  6 Melbourne Central 2017-12-31 18:00:00 2018-01-01     5   222
##  7 Melbourne Central 2017-12-31 19:00:00 2018-01-01     6   110
##  8 Melbourne Central 2017-12-31 20:00:00 2018-01-01     7   180
##  9 Melbourne Central 2017-12-31 21:00:00 2018-01-01     8   205
## 10 Melbourne Central 2017-12-31 22:00:00 2018-01-01     9   326
## # … with 8,750 more rows
```

---
# Add month and weekday information

```r
walk_tidy <- walk %>%
  mutate(month = month(Date,  label = TRUE, abbr = TRUE), 
         wday = wday(Date, label = TRUE, abbr = TRUE, week_start = 1))
walk_tidy
## # A tibble: 8,760 x 7
##    Sensor            Date_Time           Date        Time Count month wday 
##    <chr>             <dttm>              <date>     <dbl> <dbl> <ord> <ord>
##  1 Melbourne Central 2017-12-31 13:00:00 2018-01-01     0  2996 Jan   Mon  
##  2 Melbourne Central 2017-12-31 14:00:00 2018-01-01     1  3481 Jan   Mon  
##  3 Melbourne Central 2017-12-31 15:00:00 2018-01-01     2  1721 Jan   Mon  
##  4 Melbourne Central 2017-12-31 16:00:00 2018-01-01     3  1056 Jan   Mon  
##  5 Melbourne Central 2017-12-31 17:00:00 2018-01-01     4   417 Jan   Mon  
##  6 Melbourne Central 2017-12-31 18:00:00 2018-01-01     5   222 Jan   Mon  
##  7 Melbourne Central 2017-12-31 19:00:00 2018-01-01     6   110 Jan   Mon  
##  8 Melbourne Central 2017-12-31 20:00:00 2018-01-01     7   180 Jan   Mon  
##  9 Melbourne Central 2017-12-31 21:00:00 2018-01-01     8   205 Jan   Mon  
## 10 Melbourne Central 2017-12-31 22:00:00 2018-01-01     9   326 Jan   Mon  
## # … with 8,750 more rows
```
…
(testing out zoom "breakout groups")

1. Are pedestrian counts different depending on the month?
2. Are pedestrian counts different depending on the day of the week?

04:00

---
# What are the number of pedestrians per day?

```r
walk_tidy
## # A tibble: 8,760 x 7
##    Sensor            Date_Time           Date        Time Count month wday 
##    <chr>             <dttm>              <date>     <dbl> <dbl> <ord> <ord>
##  1 Melbourne Central 2017-12-31 13:00:00 2018-01-01     0  2996 Jan   Mon  
##  2 Melbourne Central 2017-12-31 14:00:00 2018-01-01     1  3481 Jan   Mon  
##  3 Melbourne Central 2017-12-31 15:00:00 2018-01-01     2  1721 Jan   Mon  
##  4 Melbourne Central 2017-12-31 16:00:00 2018-01-01     3  1056 Jan   Mon  
##  5 Melbourne Central 2017-12-31 17:00:00 2018-01-01     4   417 Jan   Mon  
##  6 Melbourne Central 2017-12-31 18:00:00 2018-01-01     5   222 Jan   Mon  
##  7 Melbourne Central 2017-12-31 19:00:00 2018-01-01     6   110 Jan   Mon  
##  8 Melbourne Central 2017-12-31 20:00:00 2018-01-01     7   180 Jan   Mon  
##  9 Melbourne Central 2017-12-31 21:00:00 2018-01-01     8   205 Jan   Mon  
## 10 Melbourne Central 2017-12-31 22:00:00 2018-01-01     9   326 Jan   Mon  
## # … with 8,750 more rows
```

---
# What are the number of pedestrians per day?

```r
walk_day <- walk_tidy %>% 
  group_by(Date) %>%
  summarise(day_count = sum(Count, na.rm = TRUE))

walk_day
## # A tibble: 365 x 2
##    Date       day_count
##    <date>         <dbl>
##  1 2018-01-01     30832
##  2 2018-01-02     26136
##  3 2018-01-03     26567
##  4 2018-01-04     26532
##  5 2018-01-05     28203
##  6 2018-01-06     20845
##  7 2018-01-07     24052
##  8 2018-01-08     26530
##  9 2018-01-09     27116
## 10 2018-01-10     28203
## # … with 355 more rows
```

---
# What are the mean number of people per weekday?

```r
walk_day %>%
  mutate(wday = wday(Date, label = TRUE, abbr = TRUE, week_start = 1))
## # A tibble: 365 x 3
##    Date       day_count wday 
##    <date>         <dbl> <ord>
##  1 2018-01-01     30832 Mon  
##  2 2018-01-02     26136 Tue  
##  3 2018-01-03     26567 Wed  
##  4 2018-01-04     26532 Thu  
##  5 2018-01-05     28203 Fri  
##  6 2018-01-06     20845 Sat  
##  7 2018-01-07     24052 Sun  
##  8 2018-01-08     26530 Mon  
##  9 2018-01-09     27116 Tue  
## 10 2018-01-10     28203 Wed  
## # … with 355 more rows
```

---
# What are the mean number of people per weekday?

```r
walk_day %>%
  mutate(wday = wday(Date, label = TRUE, abbr = TRUE, week_start = 1)) %>% 
  group_by(wday) 
## # A tibble: 365 x 3
## # Groups:   wday [7]
##    Date       day_count wday 
##    <date>         <dbl> <ord>
##  1 2018-01-01     30832 Mon  
##  2 2018-01-02     26136 Tue  
##  3 2018-01-03     26567 Wed  
##  4 2018-01-04     26532 Thu  
##  5 2018-01-05     28203 Fri  
##  6 2018-01-06     20845 Sat  
##  7 2018-01-07     24052 Sun  
##  8 2018-01-08     26530 Mon  
##  9 2018-01-09     27116 Tue  
## 10 2018-01-10     28203 Wed  
## # … with 355 more rows
```
…
---

# Holidays

```r
walk_holiday <- walk_tidy %>%
  mutate(holiday = if_else(condition = Date %in% vic_holidays$date, 
                          true = "yes", 
                          false = "no")) %>%
  mutate(holiday = if_else(condition = wday %in% c("Sat", "Sun"), 
                          true = "yes", 
                          false = holiday)) 
walk_holiday
## # A tibble: 8,760 x 8
##    Sensor         Date_Time           Date        Time Count month wday  holiday
##    <chr>          <dttm>              <date>     <dbl> <dbl> <ord> <ord> <chr>  
##  1 Melbourne Cen… 2017-12-31 13:00:00 2018-01-01     0  2996 Jan   Mon   yes    
##  2 Melbourne Cen… 2017-12-31 14:00:00 2018-01-01     1  3481 Jan   Mon   yes    
##  3 Melbourne Cen… 2017-12-31 15:00:00 2018-01-01     2  1721 Jan   Mon   yes    
##  4 Melbourne Cen… 2017-12-31 16:00:00 2018-01-01     3  1056 Jan   Mon   yes    
##  5 Melbourne Cen… 2017-12-31 17:00:00 2018-01-01     4   417 Jan   Mon   yes    
##  6 Melbourne Cen… 2017-12-31 18:00:00 2018-01-01     5   222 Jan   Mon   yes    
##  7 Melbourne Cen… 2017-12-31 19:00:00 2018-01-01     6   110 Jan   Mon   yes    
##  8 Melbourne Cen… 2017-12-31 20:00:00 2018-01-01     7   180 Jan   Mon   yes    
##  9 Melbourne Cen… 2017-12-31 21:00:00 2018-01-01     8   205 Jan   Mon   yes    
## 10 Melbourne Cen… 2017-12-31 22:00:00 2018-01-01     9   326 Jan   Mon   yes    
## # … with 8,750 more rows
```
…
