ETC1010: Introduction to Data Analysis
…
[DEMO]

---
# Nodes and edges?

Netword data can be thought of as two related tables, **nodes** and **edges**:

- **nodes** are connection points
- **edges** are the connections between points

---
# Example: Mad Men. (Nodes = characters from the series)

```
## # A tibble: 45 x 2
##    label          Gender
##    <fct>          <fct> 
##  1 Betty Draper   female
##  2 Don Draper     male  
##  3 Harry Crane    male  
##  4 Joan Holloway  female
##  5 Lane Pryce     male  
##  6 Peggy Olson    female
##  7 Pete Campbell  male  
##  8 Roger Sterling male  
##  9 Sal Romano     male  
## 10 Henry Francis  male  
## # … with 35 more rows
```

---
# Example: Mad Men. (Edges = how they are associated)

```
## # A tibble: 39 x 2
##    Name1        Name2           
##    <fct>        <fct>           
##  1 Betty Draper Henry Francis   
##  2 Betty Draper Random guy      
##  3 Don Draper   Allison         
##  4 Don Draper   Bethany Van Nuys
##  5 Don Draper   Betty Draper    
##  6 Don Draper   Bobbie Barrett  
##  7 Don Draper   Candace         
##  8 Don Draper   Doris           
##  9 Don Draper   Faye Miller     
## 10 Don Draper   Joy             
## # … with 29 more rows
```
…
<img src="lecture_9a_files/figure-html/ggraph-madmen-1.png" width="100%" style="display: block; margin: auto;" />

---
# Which actor was most connected?

```r
madmen$edges %>% 
  gather(X, Name, Name1, Name2) %>% 
  count(Name, sort=TRUE)
## # A tibble: 45 x 2
##    Name               n
##    <chr>          <int>
##  1 Don Draper        14
##  2 Roger Sterling     6
##  3 Peggy Olson        5
##  4 Pete Campbell      4
##  5 Betty Draper       3
##  6 Joan Holloway      3
##  7 Lane Pryce         3
##  8 Harry Crane        2
##  9 Sal Romano         2
## 10 Abe Drexler        1
## # … with 35 more rows
```
…
*Source: [wikicommons](https://commons.wikimedia.org/wiki/File:Harry_Potter_Platform_Kings_Cross.jpg)*

---
# Example: Harry Potter characters

There is a connection between two students if one provides emotional support to the other at some point in the book. 
- Code to pull the data together is provided by Sam Tyner [here](https://github.com/sctyner/geomnet/blob/master/README.Rmd#harry-potter-peer-support-network).

---
# Harry potter data as nodes and edges

```r
hp_all
## # A tibble: 720 x 6
##    book  from_id            to_id              schoolyear gender house     
##    <chr> <chr>              <chr>                   <dbl> <chr>  <chr>     
##  1 1     Dean Thomas        Harry James Potter       1991 M      Gryffindor
##  2 1     Dean Thomas        Hermione Granger         1991 M      Gryffindor
##  3 1     Dean Thomas        Neville Longbottom       1991 M      Gryffindor
##  4 1     Dean Thomas        Ronald Weasley           1991 M      Gryffindor
##  5 1     Dean Thomas        Seamus Finnigan          1991 M      Gryffindor
##  6 1     Fred Weasley       George Weasley           1989 M      Gryffindor
##  7 1     Fred Weasley       Harry James Potter       1989 M      Gryffindor
##  8 1     George Weasley     Fred Weasley             1989 M      Gryffindor
##  9 1     George Weasley     Harry James Potter       1989 M      Gryffindor
## 10 1     Harry James Potter Dean Thomas              1991 M      Gryffindor
## # … with 710 more rows
```
…
