ETC1010: Introduction to Data Analysis
…
---
# Sequential: low to high numeric values

<img src="lecture_4b_files/figure-html/print-seq-pal-1.png" width="100%" style="display: block; margin: auto;" />

---
# Diverging: negative to positive values

<img src="lecture_4b_files/figure-html/print-div-pal-1.png" width="100%" style="display: block; margin: auto;" />

---
# Example: TB data

```
## # A tibble: 157,820 x 5
##    country      year count gender age  
##    <chr>       <dbl> <dbl> <chr>  <chr>
##  1 Afghanistan  1980    NA m      04   
##  2 Afghanistan  1981    NA m      04   
##  3 Afghanistan  1982    NA m      04   
##  4 Afghanistan  1983    NA m      04   
##  5 Afghanistan  1984    NA m      04   
##  6 Afghanistan  1985    NA m      04   
##  7 Afghanistan  1986    NA m      04   
##  8 Afghanistan  1987    NA m      04   
##  9 Afghanistan  1988    NA m      04   
## 10 Afghanistan  1989    NA m      04   
## # … with 157,810 more rows
```

---
# Example: TB data: adding relative change

```
## # A tibble: 219 x 4
##    country             `2002` `2012`  reldif
##    <chr>                <dbl>  <dbl>   <dbl>
##  1 Afghanistan           6509  13907  1.14  
##  2 Albania                225    185 -0.178 
##  3 Algeria               8246   7510 -0.0893
##  4 American Samoa           1      0 -1     
##  5 Andorra                  2      2  0     
##  6 Angola               17988  22106  0.229 
##  7 Anguilla                 0      0  0     
##  8 Antigua and Barbuda      4      1 -0.75  
##  9 Argentina             5383   4787 -0.111 
## 10 Armenia                511    316 -0.382 
## # … with 209 more rows
```
…
