ETC1010: Introduction to Data Analysis
…
---
# Quantitative association matrices

We would need to turn this into an edge data set:

```
## # A tibble: 25 x 3
##    from  to    count
##    <chr> <chr> <dbl>
##  1 Meg   Meg       0
##  2 Tay   Meg       5
##  3 Yat   Meg       4
##  4 Zili  Meg       1
##  5 Jess  Meg       1
##  6 Meg   Tay       5
##  7 Tay   Tay       0
##  8 Yat   Tay       4
##  9 Zili  Tay       2
## 10 Jess  Tay       1
## # … with 15 more rows
```
…
```r
rates_stable <- rates_cv %>%
  filter(cv < quantile(cv, 0.25))
```

---

# Filter out low cv currencies using pivot and an anti join

```r
rates_sub <- rates %>% 
  pivot_longer(cols = -date, names_to = "currency") %>% 
  anti_join(rates_stable)
rates_sub
## # A tibble: 14,732 x 3
##    date       currency   value
##    <date>     <chr>      <dbl>
##  1 2018-05-14 AFN        71.2 
##  2 2018-05-14 ALL       106.  
##  3 2018-05-14 ANG         1.79
##  4 2018-05-14 AOA       230.  
##  5 2018-05-14 ARS        25.0 
##  6 2018-05-14 AUD         1.33
##  7 2018-05-14 BAM         1.63
##  8 2018-05-14 BDT        84.7 
##  9 2018-05-14 BGN         1.64
## 10 2018-05-14 BIF      1767.  
## # … with 14,722 more rows
```
…
---
# Create network: Gather data into long form, filter based on similarity

Here only the pairs of currencies who are closer than "4" to each other are kept. 

```r
distance_tbl
## # A tibble: 266 x 3
##    from_currency to_currency distance
##    <chr>         <chr>          <dbl>
##  1 ANG           CNH             2.98
##  2 ANG           CNY             3.24
##  3 ANG           IRR             3.73
##  4 ANG           TJS             3.60
##  5 ANG           VND             3.42
##  6 AOA           JMD             3.66
##  7 AOA           KZT             2.11
##  8 AOA           LAK             3.55
##  9 AOA           MMK             2.19
## 10 AOA           MYR             2.17
## # … with 256 more rows
```
…
